20

10
A
B
C
D
E
F
G
H
I
J
1 5 7 10 9 2 6 4 8 3
10 7 6 5 2 9 4 1 3 8

8
A
B
C
D
E
F
G
H
4 1 5 7 3 6 2 8
2 1 3 7 4 6 5 8
2 3 8 1 4 7 6 5

5
A
B
C
D
E
3 4 1 2 5
1 5 3 2 4

8
A
B
C
D
E
F
G
H
1 5 6 8 4 7 2 3
8 2 6 1 5 3 4 7
1 5 6 4 3 7 8 2
1 3 4 2 8 5 7 6
6 1 3 5 7 4 2 8
7 6 2 5 1 4 3 8
2 4 5 8 1 7 3 6

3
A
B
C
3 1 2
3 1 2
2 1 3
3 1 2
3 2 1
1 2 3
2 1 3

3
A
B
C
2 3 1

9
A
B
C
D
E
F
G
H
I
2 5 4 7 3 9 8 6 1
3 1 4 6 2 8 9 7 5
8 7 4 2 6 1 5 3 9
9 4 5 6 3 8 7 1 2
2 1 9 8 7 5 6 3 4
4 7 3 6 8 2 9 5 1

1
A
1
1
1
1
1
1
1
1

1
A
1
1
1
1
1
1
1
1
1
1
1
1
1
1

7
A
B
C
D
E
F
G
7 3 4 5 6 2 1
3 7 1 2 4 5 6
6 2 1 4 7 3 5

3
A
B
C
2 3 1
1 2 3
3 1 2
2 1 3
3 1 2
2 3 1
3 2 1

5
A
B
C
D
E
4 2 1 5 3
3 4 2 1 5
3 2 4 5 1
3 1 4 5 2

2
A
B
2 1
2 1
1 2
2 1

9
A
B
C
D
E
F
G
H
I
9 7 5 6 1 3 2 4 8

7
A
B
C
D
E
F
G
5 2 1 6 4 3 7
3 4 1 5 2 6 7
3 5 2 4 7 6 1
1 7 6 2 4 3 5
4 3 2 7 1 5 6
1 5 3 6 4 7 2
4 6 7 3 2 5 1

7
A
B
C
D
E
F
G
4 1 7 6 5 3 2
5 3 4 1 6 7 2
6 5 4 7 2 1 3
2 6 3 5 7 1 4
4 7 1 5 3 6 2
6 1 5 3 7 4 2
4 7 3 2 6 1 5
6 5 1 2 3 7 4
2 1 5 6 4 3 7

6
A
B
C
D
E
F
2 3 1 5 6 4
6 2 3 4 5 1
4 6 3 2 5 1
2 5 1 4 3 6
1 6 3 2 4 5
3 1 6 5 2 4
1 6 5 4 3 2
1 5 4 2 3 6
6 5 4 2 3 1
1 6 5 2 4 3
3 6 4 1 5 2
6 5 3 1 4 2
2 4 1 5 3 6
3 5 2 1 6 4

2
A
B
1 2
2 1
2 1
1 2

1
A
1
1
1
1
1

6
A
B
C
D
E
F
6 2 3 4 1 5
6 5 1 3 2 4
6 5 1 4 3 2
4 2 3 5 6 1
